 Zip File          : 1I5WDAVABM.zip
 Zip File Checksum : C40E48DA5E92BB29B6CB1E46341959F2FD5B39F9

=============================================================

  Sql Validator v1.42
  ------------------                   

  DBA Nexi - Sql Validation Tool  -  May 2021                

=============================================================

=== Checking File 01_DT08_ACFS_3DS_ACS_1.0.2.15.220216_MEPS.sql

     No Errors found

=== Finished Checking File

=== Checking File 02_DT08_ACFS_3DS_ACS_1.0.2.15.220216_MEPS.sql

     No Errors found

=== Finished Checking File

=== Checking File 03_DT08_ACFS_3DS_ACS_1.0.2.15.220224_MEPS.sql

     No Errors found

=== Finished Checking File

=== Checking File 04_DT08_ACFS_3DS_ACS_1.0.2.15.220224_MEPS.sql

     No Errors found

=== Finished Checking File

=== Checking File 05_DT08_ACFS_3DS_ACS_1.0.2.15.220224_MEPS.sql

     ERROR   :  Creating new sequences you have to specify also grant of select to read write role. Error at line : 30

=== Finished Checking File

=== Checking File 01_DT08_ACFS_3DS_ACS_1.0.2.15.220216_MEPS_rollback.sql

     No Errors found

=== Finished Checking File

=== Checking File 02_DT08_ACFS_3DS_ACS_1.0.2.15.220216_MEPS_rollback.sql

     No Errors found

=== Finished Checking File

=== Checking File 03_DT08_ACFS_3DS_ACS_1.0.2.15.220224_MEPS_rollback.sql

     No Errors found

=== Finished Checking File

=== Checking File 04_DT08_ACFS_3DS_ACS_1.0.2.15.220224_MEPS_rollback.sql

     No Errors found

=== Finished Checking File

=== Checking File 05_DT08_ACFS_3DS_ACS_1.0.2.15.220224_MEPS_rollback.sql

     No Errors found

=== Finished Checking File

